<?xml version="1.0" encoding="UTF-8" standalone="no"?>
<svg
   xmlns:dc="http://purl.org/dc/elements/1.1/"
   xmlns:cc="http://creativecommons.org/ns#"
   xmlns:rdf="http://www.w3.org/1999/02/22-rdf-syntax-ns#"
   xmlns:svg="http://www.w3.org/2000/svg"
   xmlns="http://www.w3.org/2000/svg"
   xmlns:sodipodi="http://sodipodi.sourceforge.net/DTD/sodipodi-0.dtd"
   xmlns:inkscape="http://www.inkscape.org/namespaces/inkscape"
   id="svg8"
   version="1.1"
   viewBox="0 0 12.91619 12.91619"
   height="12.91619mm"
   width="12.91619mm"
   sodipodi:docname="cursor5.svg"
   inkscape:version="1.0.1 (3bc2e813f5, 2020-09-07)"
   inkscape:export-filename="/home/gigi/Documents/PHD/talks/2020_Zurich/public/figures/cursor.png"
   inkscape:export-xdpi="96"
   inkscape:export-ydpi="96">
  <sodipodi:namedview
     pagecolor="#ffffff"
     bordercolor="#666666"
     borderopacity="1"
     objecttolerance="10"
     gridtolerance="10"
     guidetolerance="10"
     inkscape:pageopacity="0"
     inkscape:pageshadow="2"
     inkscape:window-width="1676"
     inkscape:window-height="1026"
     id="namedview7"
     showgrid="false"
     inkscape:zoom="17.985502"
     inkscape:cx="24.408548"
     inkscape:cy="24.308368"
     inkscape:window-x="0"
     inkscape:window-y="20"
     inkscape:window-maximized="0"
     inkscape:current-layer="svg8" />
  <defs
     id="defs2">
    <filter
       inkscape:collect="always"
       style="color-interpolation-filters:sRGB"
       id="filter1434"
       x="-3.3903122e-07"
       width="1.0000007"
       y="-3.3903122e-07"
       height="1.0000007">
      <feGaussianBlur
         inkscape:collect="always"
         stdDeviation="5.855747e-07"
         id="feGaussianBlur1436" />
    </filter>
  </defs>
  <metadata
     id="metadata5">
    <rdf:RDF>
      <cc:Work
         rdf:about="">
        <dc:format>image/svg+xml</dc:format>
        <dc:type
           rdf:resource="http://purl.org/dc/dcmitype/StillImage" />
        <dc:title />
      </cc:Work>
    </rdf:RDF>
  </metadata>
  <g
     transform="matrix(1.2513311,0,0,1.2513311,-58.761645,-72.940282)"
     id="layer1"
     style="fill:#f28e00;fill-opacity:0.80000001;filter:url(#filter1434)"
     inkscape:export-filename="/home/gigi/Documents/PHD/talks/2020_Zurich/public/figures/cursor.png"
     inkscape:export-xdpi="96"
     inkscape:export-ydpi="96">
    <circle
       r="2.0726399"
       cy="63.032738"
       cx="52.538689"
       id="path10"
       style="opacity:1;fill:#f28e00;fill-opacity:0.80000001;fill-rule:evenodd;stroke:#000000;stroke-width:0.0209664;stroke-miterlimit:4;stroke-dasharray:none;stroke-opacity:1" />
  </g>
</svg>
