<?xml version="1.0" encoding="UTF-8"?>
<svg xmlns="http://www.w3.org/2000/svg" xmlns:xlink="http://www.w3.org/1999/xlink" width="54.655" height="34.813" viewBox="0 0 54.655 34.813">
<defs>
<clipPath id="clip-0">
<path clip-rule="nonzero" d="M 0 0 L 54.65625 0 L 54.65625 1 L 0 1 Z M 0 0 "/>
</clipPath>
<clipPath id="clip-1">
<path clip-rule="nonzero" d="M 0 6 L 22 6 L 22 34.8125 L 0 34.8125 Z M 0 6 "/>
</clipPath>
<clipPath id="clip-2">
<path clip-rule="nonzero" d="M 33 0 L 54.65625 0 L 54.65625 29 L 33 29 Z M 33 0 "/>
</clipPath>
<clipPath id="clip-3">
<path clip-rule="nonzero" d="M 33 6 L 54.65625 6 L 54.65625 34.8125 L 33 34.8125 Z M 33 6 "/>
</clipPath>
<clipPath id="clip-4">
<path clip-rule="nonzero" d="M 16 4 L 54.65625 4 L 54.65625 31 L 16 31 Z M 16 4 "/>
</clipPath>
<clipPath id="clip-5">
<path clip-rule="nonzero" d="M 0 34 L 54.65625 34 L 54.65625 34.8125 L 0 34.8125 Z M 0 34 "/>
</clipPath>
</defs>
<g clip-path="url(#clip-0)">
<path fill="none" stroke-width="0.79701" stroke-linecap="butt" stroke-linejoin="miter" stroke="rgb(0%, 65.098572%, 92.156982%)" stroke-opacity="1" stroke-dasharray="2.98883 2.98883" stroke-miterlimit="10" d="M -8.503563 0.0005625 L 45.355812 0.0005625 " transform="matrix(1, 0, 0, -1, 8.902, 0.399)"/>
</g>
<path fill="none" stroke-width="0.79701" stroke-linecap="butt" stroke-linejoin="miter" stroke="rgb(0%, 65.098572%, 92.156982%)" stroke-opacity="1" stroke-miterlimit="10" d="M 0.00034375 0.0005625 C 0.00034375 -0.710375 1.418312 -1.061937 1.418312 -1.772875 C 1.418312 -2.284594 0.726906 -2.726 0.00034375 -3.190844 C -0.726219 -3.651781 -1.417625 -4.093187 -1.417625 -4.604906 C -1.417625 -5.120531 -0.726219 -5.561937 0.00034375 -6.022875 C 0.726906 -6.483812 1.418312 -6.929125 1.418312 -7.440844 C 1.418312 -7.952562 0.726906 -8.397875 0.00034375 -8.858812 C -0.726219 -9.31975 -1.417625 -9.761156 -1.417625 -10.276781 C -1.417625 -10.7885 -0.726219 -11.229906 0.00034375 -11.69475 C 0.726906 -12.155687 1.418312 -12.597094 1.418312 -13.108812 C 1.418312 -13.81975 0.00034375 -14.175219 0.00034375 -14.88225 L 0.00034375 -17.00725 " transform="matrix(1, 0, 0, -1, 8.902, 0.399)"/>
<g clip-path="url(#clip-1)">
<path fill="none" stroke-width="0.79701" stroke-linecap="butt" stroke-linejoin="miter" stroke="rgb(0%, 65.098572%, 92.156982%)" stroke-opacity="1" stroke-miterlimit="10" d="M 0.00034375 -17.00725 C 0.00034375 -17.718187 1.418312 -18.06975 1.418312 -18.780687 C 1.418312 -19.292406 0.726906 -19.733812 0.00034375 -20.198656 C -0.726219 -20.659594 -1.417625 -21.101 -1.417625 -21.612719 C -1.417625 -22.128344 -0.726219 -22.56975 0.00034375 -23.030687 C 0.726906 -23.495531 1.418312 -23.936937 1.418312 -24.448656 C 1.418312 -24.960375 0.726906 -25.405687 0.00034375 -25.866625 C -0.726219 -26.327562 -1.417625 -26.768969 -1.417625 -27.284594 C -1.417625 -27.796312 -0.726219 -28.237719 0.00034375 -28.702562 C 0.726906 -29.1635 1.418312 -29.604906 1.418312 -30.116625 C 1.418312 -30.827562 0.00034375 -31.183031 0.00034375 -31.890062 L 0.00034375 -34.015062 " transform="matrix(1, 0, 0, -1, 8.902, 0.399)"/>
</g>
<g clip-path="url(#clip-2)">
<path fill="none" stroke-width="0.79701" stroke-linecap="butt" stroke-linejoin="miter" stroke="rgb(0%, 65.098572%, 92.156982%)" stroke-opacity="1" stroke-miterlimit="10" d="M 36.851906 0.0005625 C 36.851906 -0.710375 38.269875 -1.061937 38.269875 -1.772875 C 38.269875 -2.284594 37.578469 -2.726 36.851906 -3.190844 C 36.125344 -3.651781 35.433937 -4.093187 35.433937 -4.604906 C 35.433937 -5.120531 36.125344 -5.561937 36.851906 -6.022875 C 37.578469 -6.483812 38.269875 -6.929125 38.269875 -7.440844 C 38.269875 -7.952562 37.578469 -8.397875 36.851906 -8.858812 C 36.125344 -9.31975 35.433937 -9.761156 35.433937 -10.276781 C 35.433937 -10.7885 36.125344 -11.229906 36.851906 -11.69475 C 37.578469 -12.155687 38.269875 -12.597094 38.269875 -13.108812 C 38.269875 -13.81975 36.851906 -14.175219 36.851906 -14.88225 L 36.851906 -17.00725 " transform="matrix(1, 0, 0, -1, 8.902, 0.399)"/>
</g>
<g clip-path="url(#clip-3)">
<path fill="none" stroke-width="0.79701" stroke-linecap="butt" stroke-linejoin="miter" stroke="rgb(0%, 65.098572%, 92.156982%)" stroke-opacity="1" stroke-miterlimit="10" d="M 36.851906 -17.00725 C 36.851906 -17.718187 38.269875 -18.06975 38.269875 -18.780687 C 38.269875 -19.292406 37.578469 -19.733812 36.851906 -20.198656 C 36.125344 -20.659594 35.433937 -21.101 35.433937 -21.612719 C 35.433937 -22.128344 36.125344 -22.56975 36.851906 -23.030687 C 37.578469 -23.495531 38.269875 -23.936937 38.269875 -24.448656 C 38.269875 -24.960375 37.578469 -25.405687 36.851906 -25.866625 C 36.125344 -26.327562 35.433937 -26.768969 35.433937 -27.284594 C 35.433937 -27.796312 36.125344 -28.237719 36.851906 -28.702562 C 37.578469 -29.1635 38.269875 -29.604906 38.269875 -30.116625 C 38.269875 -30.827562 36.851906 -31.183031 36.851906 -31.890062 L 36.851906 -34.015062 " transform="matrix(1, 0, 0, -1, 8.902, 0.399)"/>
</g>
<path fill="none" stroke-width="0.79701" stroke-linecap="butt" stroke-linejoin="miter" stroke="rgb(0%, 65.098572%, 92.156982%)" stroke-opacity="1" stroke-miterlimit="10" d="M 0.00034375 -17.00725 C 0.707375 -17.00725 1.062844 -15.589281 1.769875 -15.589281 C 2.2855 -15.589281 2.726906 -16.280687 3.187844 -17.00725 C 3.652687 -17.733812 4.094094 -18.425219 4.605812 -18.425219 C 5.117531 -18.425219 5.562844 -17.733812 6.023781 -17.00725 C 6.484719 -16.280687 6.926125 -15.589281 7.44175 -15.589281 C 7.953469 -15.589281 8.394875 -16.280687 8.859719 -17.00725 C 9.320656 -17.733812 9.762062 -18.425219 10.273781 -18.425219 C 10.789406 -18.425219 11.230812 -17.733812 11.69175 -17.00725 C 12.156594 -16.280687 12.598 -15.589281 13.109719 -15.589281 C 13.621437 -15.589281 14.06675 -16.280687 14.527687 -17.00725 C 14.988625 -17.733812 15.430031 -18.425219 15.945656 -18.425219 C 16.652687 -18.425219 17.008156 -17.00725 17.715187 -17.00725 L 18.426125 -17.00725 " transform="matrix(1, 0, 0, -1, 8.902, 0.399)"/>
<g clip-path="url(#clip-4)">
<path fill="none" stroke-width="0.79701" stroke-linecap="butt" stroke-linejoin="miter" stroke="rgb(0%, 65.098572%, 92.156982%)" stroke-opacity="1" stroke-miterlimit="10" d="M 18.426125 -17.00725 C 19.133156 -17.00725 19.488625 -15.589281 20.195656 -15.589281 C 20.711281 -15.589281 21.152687 -16.280687 21.613625 -17.00725 C 22.074562 -17.733812 22.519875 -18.425219 23.031594 -18.425219 C 23.543312 -18.425219 23.988625 -17.733812 24.449562 -17.00725 C 24.9105 -16.280687 25.351906 -15.589281 25.867531 -15.589281 C 26.37925 -15.589281 26.820656 -16.280687 27.281594 -17.00725 C 27.746437 -17.733812 28.187844 -18.425219 28.699562 -18.425219 C 29.215187 -18.425219 29.656594 -17.733812 30.117531 -17.00725 C 30.578469 -16.280687 31.023781 -15.589281 31.5355 -15.589281 C 32.047219 -15.589281 32.492531 -16.280687 32.953469 -17.00725 C 33.414406 -17.733812 33.855812 -18.425219 34.371437 -18.425219 C 35.078469 -18.425219 35.433937 -17.00725 36.140969 -17.00725 L 36.851906 -17.00725 " transform="matrix(1, 0, 0, -1, 8.902, 0.399)"/>
</g>
<path fill="none" stroke-width="0.79701" stroke-linecap="butt" stroke-linejoin="miter" stroke="rgb(0%, 65.098572%, 92.156982%)" stroke-opacity="1" stroke-miterlimit="10" d="M 18.426125 0.0005625 C 18.426125 -0.710375 19.844094 -1.061937 19.844094 -1.772875 C 19.844094 -2.284594 19.152687 -2.726 18.426125 -3.190844 C 17.699562 -3.651781 17.008156 -4.093187 17.008156 -4.604906 C 17.008156 -5.120531 17.699562 -5.561937 18.426125 -6.022875 C 19.152687 -6.483812 19.844094 -6.929125 19.844094 -7.440844 C 19.844094 -7.952562 19.152687 -8.397875 18.426125 -8.858812 C 17.699562 -9.31975 17.008156 -9.761156 17.008156 -10.276781 C 17.008156 -10.7885 17.699562 -11.229906 18.426125 -11.69475 C 19.152687 -12.155687 19.844094 -12.597094 19.844094 -13.108812 C 19.844094 -13.81975 18.426125 -14.175219 18.426125 -14.88225 L 18.426125 -17.00725 " transform="matrix(1, 0, 0, -1, 8.902, 0.399)"/>
<g clip-path="url(#clip-5)">
<path fill="none" stroke-width="0.79701" stroke-linecap="butt" stroke-linejoin="miter" stroke="rgb(0%, 65.098572%, 92.156982%)" stroke-opacity="1" stroke-dasharray="2.98883 2.98883" stroke-miterlimit="10" d="M -8.503563 -34.015062 L 45.355812 -34.015062 " transform="matrix(1, 0, 0, -1, 8.902, 0.399)"/>
</g>
</svg>
